ISSS626-GAA - Hands-on Exercise 1
…
listings <- read_csv("C:/jhui-chen/ISSS626-GAA/Hands-on_Ex/Hands-on_Ex01/data/aspatial/listings.csv")

Rows: 3540 Columns: 18
── Column specification ────────────────────────────────────────────────────────
Delimiter: ","
chr   (6): name, host_name, neighbourhood_group, neighbourhood, room_type, l...
dbl  (11): id, host_id, latitude, longitude, price, minimum_nights, number_o...
date  (1): last_review

ℹ Use `spec()` to retrieve the full column specification for this data.
ℹ Specify the column types or set `show_col_types = FALSE` to quiet this message.

print(listings)

# A tibble: 3,540 × 18
       id name      host_id host_name neighbourhood_group neighbourhood latitude
    <dbl> <chr>       <dbl> <chr>     <chr>               <chr>            <dbl>
 1  71609 Ensuite …  367042 Belinda   East Region         Tampines          1.35
 2  71896 B&B  Roo…  367042 Belinda   East Region         Tampines          1.35
 3  71903 Room 2-n…  367042 Belinda   East Region         Tampines          1.35
 4 275343 10min wa… 1439258 Kay       Central Region      Bukit Merah       1.29
 5 275344 15 mins … 1439258 Kay       Central Region      Bukit Merah       1.29
 6 289234 Booking …  367042 Belinda   East Region         Tampines          1.34
 7 294281 5 mins w… 1521514 Elizabeth Central Region      Newton            1.31
 8 324945 Comforta… 1439258 Kay       Central Region      Bukit Merah       1.29
 9 330095 Relaxing… 1439258 Kay       Central Region      Bukit Merah       1.29
10 344803 Budget s…  367042 Belinda   East Region         Tampines          1.35
# ℹ 3,530 more rows
# ℹ 11 more variables: longitude <dbl>, room_type <chr>, price <dbl>,
#   minimum_nights <dbl>, number_of_reviews <dbl>, last_review <date>,
#   reviews_per_month <dbl>, calculated_host_listings_count <dbl>,
#   availability_365 <dbl>, number_of_reviews_ltm <dbl>, license <chr>
…
popdata <- read_csv("C:/jhui-chen/ISSS626-GAA/Hands-on_Ex/Hands-on_Ex01/data/aspatial/respopagesextod2011to2020.csv")

Rows: 984656 Columns: 7
── Column specification ────────────────────────────────────────────────────────
Delimiter: ","
chr (5): PA, SZ, AG, Sex, TOD
dbl (2): Pop, Time

ℹ Use `spec()` to retrieve the full column specification for this data.
ℹ Specify the column types or set `show_col_types = FALSE` to quiet this message.

popdata

# A tibble: 984,656 × 7
   PA         SZ                     AG     Sex     TOD                Pop  Time
   <chr>      <chr>                  <chr>  <chr>   <chr>            <dbl> <dbl>
 1 Ang Mo Kio Ang Mo Kio Town Centre 0_to_4 Males   HDB 1- and 2-Ro…     0  2011
 2 Ang Mo Kio Ang Mo Kio Town Centre 0_to_4 Males   HDB 3-Room Flats    10  2011
 3 Ang Mo Kio Ang Mo Kio Town Centre 0_to_4 Males   HDB 4-Room Flats    30  2011
 4 Ang Mo Kio Ang Mo Kio Town Centre 0_to_4 Males   HDB 5-Room and …    50  2011
 5 Ang Mo Kio Ang Mo Kio Town Centre 0_to_4 Males   HUDC Flats (exc…     0  2011
 6 Ang Mo Kio Ang Mo Kio Town Centre 0_to_4 Males   Landed Properti…     0  2011
 7 Ang Mo Kio Ang Mo Kio Town Centre 0_to_4 Males   Condominiums an…    40  2011
 8 Ang Mo Kio Ang Mo Kio Town Centre 0_to_4 Males   Others               0  2011
 9 Ang Mo Kio Ang Mo Kio Town Centre 0_to_4 Females HDB 1- and 2-Ro…     0  2011
10 Ang Mo Kio Ang Mo Kio Town Centre 0_to_4 Females HDB 3-Room Flats    10  2011
# ℹ 984,646 more rows
…
